…
``` r
out <- mrgsim(mod)

class(out)
```

    . [1] "mrgsims"
    . attr(,"package")
    . [1] "mrgsolve"

``` r
as_tibble(out)
```

    . # A tibble: 25 x 5
    .       ID  time    EV  CENT    CP
    .    <dbl> <dbl> <dbl> <dbl> <dbl>
    .  1     1     0     0     0     0
    .  2     1     1     0     0     0
    .  3     1     2     0     0     0
    .  4     1     3     0     0     0
    .  5     1     4     0     0     0
    .  6     1     5     0     0     0
    .  7     1     6     0     0     0
    .  8     1     7     0     0     0
    .  9     1     8     0     0     0
    . 10     1     9     0     0     0
    . # … with 15 more rows
…
