…
data <-
  data.file %>% 
  read_csv() %>% 
  mutate(
    profile = NULL, 
    type=ID, 
    typef=factor(ID, labels = c("Statin", "Statin+CsA")), 
    DV = ifelse(DV==-1, NA_real_, DV)
  )


data
```

    . # A tibble: 23 x 8
    .       ID  time     DV  evid   amt   cmt  type typef     
    .    <dbl> <dbl>  <dbl> <dbl> <dbl> <dbl> <dbl> <fct>     
    .  1     2  0     NA        1  2000     2     2 Statin+CsA
    .  2     2  1     NA        1    30     1     2 Statin+CsA
    .  3     2  1.49  73.7      0     0     0     2 Statin+CsA
    .  4     2  1.99 102.       0     0     0     2 Statin+CsA
    .  5     2  2.49  59.9      0     0     0     2 Statin+CsA
    .  6     2  3.00  37.6      0     0     0     2 Statin+CsA
    .  7     2  3.97  15.7      0     0     0     2 Statin+CsA
    .  8     2  5.01   9.24     0     0     0     2 Statin+CsA
    .  9     2  6.99   3.54     0     0     0     2 Statin+CsA
    . 10     2  9.01   2.22     0     0     0     2 Statin+CsA
    . # … with 13 more rows
…
